<?xml version="1.0" encoding="UTF-8" standalone="no"?>
<graphml xmlns="http://graphml.graphdrawing.org/xmlns" xmlns:java="http://www.yworks.com/xml/yfiles-common/1.0/java" xmlns:sys="http://www.yworks.com/xml/yfiles-common/markup/primitives/2.0" xmlns:x="http://www.yworks.com/xml/yfiles-common/markup/2.0" xmlns:xsi="http://www.w3.org/2001/XMLSchema-instance" xmlns:y="http://www.yworks.com/xml/graphml" xmlns:yed="http://www.yworks.com/xml/yed/3" xsi:schemaLocation="http://graphml.graphdrawing.org/xmlns http://www.yworks.com/xml/schema/graphml/1.1/ygraphml.xsd">
  <!--Created by yEd 3.19.1.1-->
  <key attr.name="Description" attr.type="string" for="graph" id="d0"/>
  <key for="port" id="d1" yfiles.type="portgraphics"/>
  <key for="port" id="d2" yfiles.type="portgeometry"/>
  <key for="port" id="d3" yfiles.type="portuserdata"/>
  <key attr.name="url" attr.type="string" for="node" id="d4"/>
  <key attr.name="description" attr.type="string" for="node" id="d5"/>
  <key for="node" id="d6" yfiles.type="nodegraphics"/>
  <key for="graphml" id="d7" yfiles.type="resources"/>
  <key attr.name="url" attr.type="string" for="edge" id="d8"/>
  <key attr.name="description" attr.type="string" for="edge" id="d9"/>
  <key for="edge" id="d10" yfiles.type="edgegraphics"/>
  <graph edgedefault="directed" id="G">
    <data key="d0" xml:space="preserve"/>
    <node id="n0">
      <data key="d6">
        <y:ShapeNode>
          <y:Geometry height="105.81017661470509" width="295.48350791657816" x="347.2894701558851" y="-433.14851041523093"/>
          <y:Fill hasColor="false" transparent="false"/>
          <y:BorderStyle color="#FFFFFF" raised="false" type="line" width="1.0"/>
          <y:NodeLabel alignment="center" autoSizePolicy="content" fontFamily="Helvetica" fontSize="9" fontStyle="italic" hasBackgroundColor="false" hasLineColor="false" height="13.0" horizontalTextPosition="center" iconTextGap="4" modelName="internal" modelPosition="t" textColor="#FFFFFF" verticalTextPosition="bottom" visible="true" width="85.03955078125" x="105.22197856766405" xml:space="preserve" y="4.0">LED Control Module</y:NodeLabel>
          <y:Shape type="rectangle"/>
        </y:ShapeNode>
      </data>
    </node>
    <node id="n1">
      <data key="d6">
        <y:ShapeNode>
          <y:Geometry height="239.57017661470502" width="456.1235079165782" x="196.07958860671562" y="-453.37389893101545"/>
          <y:Fill hasColor="false" transparent="false"/>
          <y:BorderStyle color="#FFFFFF" raised="false" type="dashed" width="1.0"/>
          <y:NodeLabel alignment="center" autoSizePolicy="content" fontFamily="Helvetica" fontSize="12" fontStyle="plain" hasBackgroundColor="false" hasLineColor="false" hasText="false" height="4.0" horizontalTextPosition="center" iconTextGap="4" modelName="custom" textColor="#000000" verticalTextPosition="bottom" visible="true" width="4.0" x="226.0617539582891" y="117.78508830735251">
            <y:LabelModel>
              <y:SmartNodeLabelModel distance="4.0"/>
            </y:LabelModel>
            <y:ModelParameter>
              <y:SmartNodeLabelModelParameter labelRatioX="0.0" labelRatioY="0.0" nodeRatioX="0.0" nodeRatioY="0.0" offsetX="0.0" offsetY="0.0" upX="0.0" upY="-1.0"/>
            </y:ModelParameter>
          </y:NodeLabel>
          <y:Shape type="rectangle"/>
        </y:ShapeNode>
      </data>
    </node>
    <node id="n2">
      <data key="d5" xml:space="preserve"><![CDATA[DAC]]></data>
      <data key="d6">
        <y:ShapeNode>
          <y:Geometry height="50.0" width="50.0" x="217.2894701558851" y="-405.24342210787836"/>
          <y:Fill hasColor="false" transparent="false"/>
          <y:BorderStyle color="#FFFFFF" raised="false" type="line" width="1.0"/>
          <y:NodeLabel alignment="center" autoSizePolicy="content" fontFamily="Helvetica" fontSize="12" fontStyle="plain" hasBackgroundColor="false" hasLineColor="false" height="16.0" horizontalTextPosition="center" iconTextGap="4" modelName="custom" textColor="#FFFFFF" verticalTextPosition="bottom" visible="true" width="29.3359375" x="10.33203125" xml:space="preserve" y="17.0">DAC<y:LabelModel><y:SmartNodeLabelModel distance="4.0"/></y:LabelModel><y:ModelParameter><y:SmartNodeLabelModelParameter labelRatioX="0.0" labelRatioY="0.0" nodeRatioX="0.0" nodeRatioY="0.0" offsetX="0.0" offsetY="0.0" upX="0.0" upY="-1.0"/></y:ModelParameter></y:NodeLabel>
          <y:Shape type="rectangle"/>
        </y:ShapeNode>
      </data>
    </node>
    <node id="n3">
      <data key="d5" xml:space="preserve"><![CDATA[DAC]]></data>
      <data key="d6">
        <y:ShapeNode>
          <y:Geometry height="50.0" width="100.0" x="217.2894701558851" y="-311.9341991394475"/>
          <y:Fill hasColor="false" transparent="false"/>
          <y:BorderStyle color="#FFFFFF" raised="false" type="line" width="1.0"/>
          <y:NodeLabel alignment="center" autoSizePolicy="content" fontFamily="Helvetica" fontSize="12" fontStyle="plain" hasBackgroundColor="false" hasLineColor="false" height="16.0" horizontalTextPosition="center" iconTextGap="4" modelName="custom" textColor="#FFFFFF" verticalTextPosition="bottom" visible="true" width="73.357421875" x="13.3212890625" xml:space="preserve" y="17.0">Raspberry Pi<y:LabelModel><y:SmartNodeLabelModel distance="4.0"/></y:LabelModel><y:ModelParameter><y:SmartNodeLabelModelParameter labelRatioX="0.0" labelRatioY="0.0" nodeRatioX="0.0" nodeRatioY="0.0" offsetX="0.0" offsetY="0.0" upX="0.0" upY="-1.0"/></y:ModelParameter></y:NodeLabel>
          <y:Shape type="rectangle"/>
        </y:ShapeNode>
      </data>
    </node>
    <node id="n4">
      <data key="d4" xml:space="preserve"/>
      <data key="d5" xml:space="preserve"><![CDATA[DAC]]></data>
      <data key="d6">
        <y:ShapeNode>
          <y:Geometry height="50.0" width="100.0" x="374.1413425650047" y="-311.9341991394475"/>
          <y:Fill hasColor="false" transparent="false"/>
          <y:BorderStyle color="#FFFFFF" raised="false" type="line" width="1.0"/>
          <y:NodeLabel alignment="center" autoSizePolicy="content" fontFamily="Helvetica" fontSize="12" fontStyle="plain" hasBackgroundColor="false" hasLineColor="false" height="16.0" horizontalTextPosition="center" iconTextGap="4" modelName="custom" textColor="#FFFFFF" verticalTextPosition="bottom" visible="true" width="28.673828125" x="35.6630859375" xml:space="preserve" y="17.0">PSU<y:LabelModel><y:SmartNodeLabelModel distance="4.0"/></y:LabelModel><y:ModelParameter><y:SmartNodeLabelModelParameter labelRatioX="0.0" labelRatioY="0.0" nodeRatioX="0.0" nodeRatioY="0.0" offsetX="0.0" offsetY="0.0" upX="0.0" upY="-1.0"/></y:ModelParameter></y:NodeLabel>
          <y:Shape type="rectangle"/>
        </y:ShapeNode>
      </data>
    </node>
    <node id="n5">
      <data key="d5" xml:space="preserve"><![CDATA[DAC]]></data>
      <data key="d6">
        <y:ShapeNode>
          <y:Geometry height="48.0" width="73.0" x="282.83333130187333" y="-105.74340894406038"/>
          <y:Fill hasColor="false" transparent="false"/>
          <y:BorderStyle color="#FFFFFF" raised="false" type="line" width="1.0"/>
          <y:NodeLabel alignment="center" autoSizePolicy="content" fontFamily="Helvetica" fontSize="12" fontStyle="plain" hasBackgroundColor="false" hasLineColor="false" height="16.0" horizontalTextPosition="center" iconTextGap="4" modelName="custom" textColor="#FFFFFF" verticalTextPosition="bottom" visible="true" width="28.673828125" x="22.1630859375" xml:space="preserve" y="16.0">NAS<y:LabelModel><y:SmartNodeLabelModel distance="4.0"/></y:LabelModel><y:ModelParameter><y:SmartNodeLabelModelParameter labelRatioX="0.0" labelRatioY="0.0" nodeRatioX="0.0" nodeRatioY="0.0" offsetX="0.0" offsetY="0.0" upX="0.0" upY="-1.0"/></y:ModelParameter></y:NodeLabel>
          <y:Shape type="rectangle"/>
        </y:ShapeNode>
      </data>
    </node>
    <node id="n6">
      <data key="d5" xml:space="preserve"><![CDATA[DAC]]></data>
      <data key="d6">
        <y:ShapeNode>
          <y:Geometry height="48.0" width="73.0" x="184.93201735675154" y="-105.47586631397922"/>
          <y:Fill hasColor="false" transparent="false"/>
          <y:BorderStyle color="#FFFFFF" raised="false" type="line" width="1.0"/>
          <y:NodeLabel alignment="center" autoSizePolicy="content" fontFamily="Helvetica" fontSize="12" fontStyle="plain" hasBackgroundColor="false" hasLineColor="false" height="28.0" horizontalTextPosition="center" iconTextGap="4" modelName="custom" textColor="#FFFFFF" verticalTextPosition="bottom" visible="true" width="47.353515625" x="12.8232421875" xml:space="preserve" y="10.0">Volumio
App<y:LabelModel><y:SmartNodeLabelModel distance="4.0"/></y:LabelModel><y:ModelParameter><y:SmartNodeLabelModelParameter labelRatioX="0.0" labelRatioY="0.0" nodeRatioX="0.0" nodeRatioY="0.0" offsetX="0.0" offsetY="0.0" upX="0.0" upY="-1.0"/></y:ModelParameter></y:NodeLabel>
          <y:Shape type="rectangle"/>
        </y:ShapeNode>
      </data>
    </node>
    <node id="n7">
      <data key="d5" xml:space="preserve"><![CDATA[DAC]]></data>
      <data key="d6">
        <y:ShapeNode>
          <y:Geometry height="48.0" width="73.0" x="64.95613682255178" y="-405.24342210787836"/>
          <y:Fill hasColor="false" transparent="false"/>
          <y:BorderStyle color="#FFFFFF" raised="false" type="line" width="1.0"/>
          <y:NodeLabel alignment="center" autoSizePolicy="content" fontFamily="Helvetica" fontSize="12" fontStyle="plain" hasBackgroundColor="false" hasLineColor="false" height="16.0" horizontalTextPosition="center" iconTextGap="4" modelName="custom" textColor="#FFFFFF" verticalTextPosition="bottom" visible="true" width="50.67578125" x="11.162109375" xml:space="preserve" y="16.0">Amplifier<y:LabelModel><y:SmartNodeLabelModel distance="4.0"/></y:LabelModel><y:ModelParameter><y:SmartNodeLabelModelParameter labelRatioX="0.0" labelRatioY="0.0" nodeRatioX="0.0" nodeRatioY="0.0" offsetX="0.0" offsetY="0.0" upX="0.0" upY="-1.0"/></y:ModelParameter></y:NodeLabel>
          <y:Shape type="rectangle"/>
        </y:ShapeNode>
      </data>
    </node>
    <node id="n8">
      <data key="d5" xml:space="preserve"><![CDATA[DAC]]></data>
      <data key="d6">
        <y:ShapeNode>
          <y:Geometry height="50.0" width="100.0" x="374.1413425650047" y="-405.24342210787836"/>
          <y:Fill hasColor="false" transparent="false"/>
          <y:BorderStyle color="#FFFFFF" raised="false" type="line" width="1.0"/>
          <y:NodeLabel alignment="center" autoSizePolicy="content" fontFamily="Helvetica" fontSize="12" fontStyle="plain" hasBackgroundColor="false" hasLineColor="false" height="16.0" horizontalTextPosition="center" iconTextGap="4" modelName="custom" textColor="#FFFFFF" verticalTextPosition="bottom" visible="true" width="55.3515625" x="22.32421875" xml:space="preserve" y="17.0">ATTiny85<y:LabelModel><y:SmartNodeLabelModel distance="4.0"/></y:LabelModel><y:ModelParameter><y:SmartNodeLabelModelParameter labelRatioX="0.0" labelRatioY="0.0" nodeRatioX="0.0" nodeRatioY="0.0" offsetX="0.0" offsetY="0.0" upX="0.0" upY="-1.0"/></y:ModelParameter></y:NodeLabel>
          <y:Shape type="rectangle"/>
        </y:ShapeNode>
      </data>
    </node>
    <node id="n9">
      <data key="d6">
        <y:GenericNode configuration="com.yworks.flowchart.cloud">
          <y:Geometry height="50.0" width="179.67659110466" x="174.94182850456568" y="-194.3293136943575"/>
          <y:Fill color="#808080" color2="#808080" transparent="false"/>
          <y:BorderStyle color="#FFFFFF" type="line" width="1.0"/>
          <y:NodeLabel alignment="center" autoSizePolicy="content" fontFamily="Helvetica" fontSize="12" fontStyle="plain" hasBackgroundColor="false" hasLineColor="false" height="16.0" horizontalTextPosition="center" iconTextGap="4" modelName="custom" textColor="#FFFFFF" verticalTextPosition="bottom" visible="true" width="27.34375" x="76.16642055232998" xml:space="preserve" y="17.0">LAN<y:LabelModel><y:SmartNodeLabelModel distance="4.0"/></y:LabelModel><y:ModelParameter><y:SmartNodeLabelModelParameter labelRatioX="0.0" labelRatioY="0.0" nodeRatioX="0.0" nodeRatioY="0.0" offsetX="0.0" offsetY="0.0" upX="0.0" upY="-1.0"/></y:ModelParameter></y:NodeLabel>
        </y:GenericNode>
      </data>
    </node>
    <node id="n10">
      <data key="d5" xml:space="preserve"><![CDATA[DAC]]></data>
      <data key="d6">
        <y:ShapeNode>
          <y:Geometry height="50.0" width="50.0" x="581.6703472569172" y="-405.24342210787836"/>
          <y:Fill hasColor="false" transparent="false"/>
          <y:BorderStyle color="#FFFFFF" raised="false" type="line" width="1.0"/>
          <y:NodeLabel alignment="center" autoSizePolicy="content" fontFamily="Helvetica" fontSize="12" fontStyle="plain" hasBackgroundColor="false" hasLineColor="false" height="28.0" horizontalTextPosition="center" iconTextGap="4" modelName="custom" textColor="#FFFFFF" verticalTextPosition="bottom" visible="true" width="30.00390625" x="9.998046875" xml:space="preserve" y="11.0">RGB
LED<y:LabelModel><y:SmartNodeLabelModel distance="4.0"/></y:LabelModel><y:ModelParameter><y:SmartNodeLabelModelParameter labelRatioX="0.0" labelRatioY="0.0" nodeRatioX="0.0" nodeRatioY="0.0" offsetX="0.0" offsetY="0.0" upX="0.0" upY="-1.0"/></y:ModelParameter></y:NodeLabel>
          <y:Shape type="rectangle"/>
        </y:ShapeNode>
      </data>
    </node>
    <edge id="e0" source="n4" target="n3">
      <data key="d10">
        <y:PolyLineEdge>
          <y:Path sx="-50.00180575658575" sy="-1.514763932077983" tx="49.995370354553245" ty="-1.514763932077983"/>
          <y:LineStyle color="#FFFFFF" type="line" width="1.0"/>
          <y:Arrows source="none" target="delta"/>
          <y:EdgeLabel alignment="center" backgroundColor="#808080" configuration="AutoFlippingLabel" distance="2.0" fontFamily="Dialog" fontSize="9" fontStyle="plain" hasLineColor="false" height="14.599609375" horizontalTextPosition="center" iconTextGap="4" modelName="centered" modelPosition="center" preferredPlacement="anywhere" ratio="0.5" textColor="#FFFFFF" verticalTextPosition="bottom" visible="true" width="15.5751953125" x="-36.211717662992555" xml:space="preserve" y="-7.2997931496504975">5V<y:PreferredPlacementDescriptor angle="0.0" angleOffsetOnRightSide="0" angleReference="absolute" angleRotationOnRightSide="co" distance="-1.0" frozen="true" placement="anywhere" side="anywhere" sideReference="relative_to_edge_flow"/></y:EdgeLabel>
          <y:BendStyle smoothed="false"/>
        </y:PolyLineEdge>
      </data>
    </edge>
    <edge id="e1" source="n8" target="n3">
      <data key="d10">
        <y:PolyLineEdge>
          <y:Path sx="-51.01295345703056" sy="-4.691798887388131" tx="1.9413117844402166" ty="-25.004636841366732">
            <y:Point x="295.8781217166578" y="-384.9352209952665"/>
            <y:Point x="295.7238496885533" y="-342.92962621339433"/>
            <y:Point x="269.2307819403253" y="-342.92962621339433"/>
          </y:Path>
          <y:LineStyle color="#FFFFFF" type="line" width="1.0"/>
          <y:Arrows source="delta" target="none"/>
          <y:EdgeLabel alignment="center" backgroundColor="#808080" configuration="AutoFlippingLabel" distance="2.0" fontFamily="Dialog" fontSize="9" fontStyle="plain" hasLineColor="false" height="14.599609375" horizontalTextPosition="center" iconTextGap="4" modelName="custom" preferredPlacement="anywhere" ratio="0.5" textColor="#FFFFFF" verticalTextPosition="bottom" visible="true" width="25.06298828125" x="-116.42909965147157" xml:space="preserve" y="53.40140266719311">GPIO<y:LabelModel><y:SmartEdgeLabelModel autoRotationEnabled="false" defaultAngle="0.0" defaultDistance="10.0"/></y:LabelModel><y:ModelParameter><y:SmartEdgeLabelModelParameter angle="0.0" distance="10.0" distanceToCenter="true" position="center" ratio="1.0" segment="-1"/></y:ModelParameter><y:PreferredPlacementDescriptor angle="0.0" angleOffsetOnRightSide="0" angleReference="absolute" angleRotationOnRightSide="co" distance="-1.0" frozen="true" placement="anywhere" side="anywhere" sideReference="relative_to_edge_flow"/></y:EdgeLabel>
          <y:EdgeLabel alignment="center" backgroundColor="#808080" configuration="AutoFlippingLabel" distance="2.0" fontFamily="Dialog" fontSize="9" fontStyle="plain" hasLineColor="false" height="14.599609375" horizontalTextPosition="center" iconTextGap="4" modelName="custom" preferredPlacement="anywhere" ratio="0.5" textColor="#FFFFFF" verticalTextPosition="bottom" visible="true" width="24.62353515625" x="-59.086306677528114" xml:space="preserve" y="-7.299814501125866">INT0<y:LabelModel><y:SmartEdgeLabelModel autoRotationEnabled="false" defaultAngle="0.0" defaultDistance="10.0"/></y:LabelModel><y:ModelParameter><y:SmartEdgeLabelModelParameter angle="0.0" distance="30.0" distanceToCenter="false" position="center" ratio="0.5" segment="0"/></y:ModelParameter><y:PreferredPlacementDescriptor angle="0.0" angleOffsetOnRightSide="0" angleReference="absolute" angleRotationOnRightSide="co" distance="-1.0" frozen="true" placement="anywhere" side="anywhere" sideReference="relative_to_edge_flow"/></y:EdgeLabel>
          <y:BendStyle smoothed="false"/>
        </y:PolyLineEdge>
      </data>
    </edge>
    <edge id="e2" source="n3" target="n2">
      <data key="d10">
        <y:PolyLineEdge>
          <y:Path sx="-25.0" sy="-24.99065916653774" tx="0.0" ty="0.0"/>
          <y:LineStyle color="#FFFFFF" type="line" width="1.0"/>
          <y:Arrows source="none" target="delta"/>
          <y:BendStyle smoothed="false"/>
        </y:PolyLineEdge>
      </data>
    </edge>
    <edge id="e3" source="n2" target="n7">
      <data key="d8" xml:space="preserve"/>
      <data key="d10">
        <y:PolyLineEdge>
          <y:Path sx="-25.0" sy="0.0" tx="36.47886317744822" ty="1.0"/>
          <y:LineStyle color="#FFFFFF" type="line" width="1.0"/>
          <y:Arrows source="none" target="delta"/>
          <y:EdgeLabel alignment="center" backgroundColor="#808080" configuration="AutoFlippingLabel" distance="2.0" fontFamily="Dialog" fontSize="9" fontStyle="plain" hasLineColor="false" height="14.599609375" horizontalTextPosition="center" iconTextGap="4" modelName="centered" modelPosition="center" preferredPlacement="anywhere" ratio="0.5" textColor="#FFFFFF" verticalTextPosition="bottom" visible="true" width="22.12744140625" x="-50.69163437699248" xml:space="preserve" y="-7.299818592253359">RCA<y:PreferredPlacementDescriptor angle="0.0" angleOffsetOnRightSide="0" angleReference="absolute" angleRotationOnRightSide="co" distance="-1.0" frozen="true" placement="anywhere" side="anywhere" sideReference="relative_to_edge_flow"/></y:EdgeLabel>
          <y:BendStyle smoothed="false"/>
        </y:PolyLineEdge>
      </data>
    </edge>
    <edge id="e4" source="n9" target="n3">
      <data key="d8" xml:space="preserve"/>
      <data key="d10">
        <y:PolyLineEdge>
          <y:Path sx="2.5093460989894396" sy="-22.704176694809235" tx="0.0" ty="0.0"/>
          <y:LineStyle color="#FFFFFF" type="line" width="1.0"/>
          <y:Arrows source="none" target="none"/>
          <y:EdgeLabel alignment="center" backgroundColor="#808080" configuration="AutoFlippingLabel" distance="2.0" fontFamily="Dialog" fontSize="9" fontStyle="plain" hasLineColor="false" height="14.599609375" horizontalTextPosition="center" iconTextGap="4" modelName="centered" modelPosition="center" preferredPlacement="anywhere" ratio="0.5" textColor="#FFFFFF" verticalTextPosition="bottom" visible="true" width="23.8720703125" x="-11.936024228880513" xml:space="preserve" y="-43.351727120027505">RJ45<y:PreferredPlacementDescriptor angle="0.0" angleOffsetOnRightSide="0" angleReference="absolute" angleRotationOnRightSide="co" distance="-1.0" frozen="true" placement="anywhere" side="anywhere" sideReference="relative_to_edge_flow"/></y:EdgeLabel>
          <y:BendStyle smoothed="false"/>
        </y:PolyLineEdge>
      </data>
    </edge>
    <edge id="e5" source="n10" target="n8">
      <data key="d10">
        <y:PolyLineEdge>
          <y:Path sx="-24.9943145898024" sy="-8.343597916319169" tx="49.9850218292533" ty="-8.343597916319169"/>
          <y:LineStyle color="#FFFFFF" type="line" width="1.0"/>
          <y:Arrows source="delta" target="none"/>
          <y:EdgeLabel alignment="center" configuration="AutoFlippingLabel" distance="2.0" fontFamily="Dialog" fontSize="9" fontStyle="plain" hasBackgroundColor="false" hasLineColor="false" height="14.599609375" horizontalTextPosition="center" iconTextGap="4" modelName="two_pos" modelPosition="head" preferredPlacement="anywhere" ratio="0.5" textColor="#FFFFFF" verticalTextPosition="bottom" visible="true" width="44.482421875" x="-75.98514629997658" xml:space="preserve" y="-16.599623783963125">PWM, red<y:PreferredPlacementDescriptor angle="0.0" angleOffsetOnRightSide="0" angleReference="absolute" angleRotationOnRightSide="co" distance="-1.0" frozen="true" placement="anywhere" side="anywhere" sideReference="relative_to_edge_flow"/></y:EdgeLabel>
          <y:BendStyle smoothed="false"/>
        </y:PolyLineEdge>
      </data>
    </edge>
    <edge id="e6" source="n8" target="n10">
      <data key="d10">
        <y:PolyLineEdge>
          <y:Path sx="49.973670952274176" sy="17.46749084164321" tx="-24.98512467072885" ty="17.46749084164321"/>
          <y:LineStyle color="#FFFFFF" type="line" width="1.0"/>
          <y:Arrows source="none" target="delta"/>
          <y:EdgeLabel alignment="center" configuration="AutoFlippingLabel" distance="2.0" fontFamily="Dialog" fontSize="9" fontStyle="plain" hasBackgroundColor="false" hasLineColor="false" height="14.599609375" horizontalTextPosition="center" iconTextGap="4" modelName="two_pos" modelPosition="tail" preferredPlacement="anywhere" ratio="0.5" textColor="#FFFFFF" verticalTextPosition="bottom" visible="true" width="48.98681640625" x="29.271170838695298" xml:space="preserve" y="2.0000086751711024">PWM, blue<y:PreferredPlacementDescriptor angle="0.0" angleOffsetOnRightSide="0" angleReference="absolute" angleRotationOnRightSide="co" distance="-1.0" frozen="true" placement="anywhere" side="anywhere" sideReference="relative_to_edge_flow"/></y:EdgeLabel>
          <y:BendStyle smoothed="false"/>
        </y:PolyLineEdge>
      </data>
    </edge>
    <edge id="e7" source="n3" target="n8">
      <data key="d10">
        <y:PolyLineEdge>
          <y:Path sx="26.434665842285483" sy="-24.9974646744231" tx="-49.97725751207298" ty="17.815173338137754">
            <y:Point x="293.7241359981706" y="-328.9454983362125"/>
            <y:Point x="316.79107736184557" y="-328.9454983362125"/>
            <y:Point x="316.79107736184557" y="-362.4282487697406"/>
          </y:Path>
          <y:LineStyle color="#FFFFFF" type="line" width="1.0"/>
          <y:Arrows source="none" target="delta"/>
          <y:EdgeLabel alignment="center" backgroundColor="#808080" configuration="AutoFlippingLabel" distance="2.0" fontFamily="Dialog" fontSize="9" fontStyle="plain" hasLineColor="false" height="14.599609375" horizontalTextPosition="center" iconTextGap="4" modelName="custom" preferredPlacement="anywhere" ratio="0.5" textColor="#FFFFFF" verticalTextPosition="bottom" visible="true" width="21.26611328125" x="12.433899627470566" xml:space="preserve" y="-41.02177345532027">3V3<y:LabelModel><y:SmartEdgeLabelModel autoRotationEnabled="false" defaultAngle="0.0" defaultDistance="10.0"/></y:LabelModel><y:ModelParameter><y:SmartEdgeLabelModelParameter angle="0.0" distance="30.0" distanceToCenter="true" position="center" ratio="0.5" segment="2"/></y:ModelParameter><y:PreferredPlacementDescriptor angle="0.0" angleOffsetOnRightSide="0" angleReference="absolute" angleRotationOnRightSide="co" distance="-1.0" frozen="true" placement="anywhere" side="anywhere" sideReference="relative_to_edge_flow"/></y:EdgeLabel>
          <y:BendStyle smoothed="false"/>
        </y:PolyLineEdge>
      </data>
    </edge>
    <edge id="e8" source="n9" target="n6">
      <data key="d10">
        <y:PolyLineEdge>
          <y:Path sx="-43.34810670014413" sy="18.903597959943056" tx="0.0" ty="0.0"/>
          <y:LineStyle color="#FFFFFF" type="line" width="1.0"/>
          <y:Arrows source="none" target="none"/>
          <y:BendStyle smoothed="false"/>
        </y:PolyLineEdge>
      </data>
    </edge>
    <edge id="e9" source="n9" target="n5">
      <data key="d10">
        <y:PolyLineEdge>
          <y:Path sx="54.553207244977656" sy="18.958082169442946" tx="0.0" ty="0.0"/>
          <y:LineStyle color="#FFFFFF" type="line" width="1.0"/>
          <y:Arrows source="none" target="none"/>
          <y:BendStyle smoothed="false"/>
        </y:PolyLineEdge>
      </data>
    </edge>
  </graph>
  <data key="d7">
    <y:Resources/>
  </data>
</graphml>
